FPGA/result.txt
VCD info: dumpfile test.vcd opened for output.
hello
00,109goal,  0

now= 18data_out_index_reg=  0,data_out_reg=  0,org_reg=  0,near_reg=  0,orgnear_reg=  0,distance=  1,sg_w=0,sg_near_reg=0all_t_in=0,wall_sg[now]=0


now=109data_out_index_reg=  0,data_out_reg=  0,org_reg=  0,near_reg=  0,orgnear_reg=  0,distance=  1,sg_w=2,sg_near_reg=0all_t_in=0,wall_sg[now]=0


now=107data_out_index_reg=  0,data_out_reg=  0,org_reg=  0,near_reg=  0,orgnear_reg=  0,distance=  1,sg_w=0,sg_near_reg=0all_t_in=0,wall_sg[now]=0


now=105data_out_index_reg=  0,data_out_reg=  0,org_reg=  0,near_reg=  0,orgnear_reg=  0,distance=  1,sg_w=0,sg_near_reg=0all_t_in=0,wall_sg[now]=0


now=103data_out_index_reg=  0,data_out_reg=  0,org_reg=  0,near_reg=  0,orgnear_reg=  0,distance=  1,sg_w=0,sg_near_reg=0all_t_in=0,wall_sg[now]=0


now=101data_out_index_reg=  0,data_out_reg=  0,org_reg=  0,near_reg=  0,orgnear_reg=  0,distance=  1,sg_w=0,sg_near_reg=0all_t_in=0,wall_sg[now]=0


now= 99data_out_index_reg=  0,data_out_reg=  0,org_reg=  0,near_reg=  0,orgnear_reg=  0,distance=  1,sg_w=0,sg_near_reg=0all_t_in=0,wall_sg[now]=0


now= 97data_out_index_reg=  0,data_out_reg=  0,org_reg=  0,near_reg=  0,orgnear_reg=  0,distance=  1,sg_w=0,sg_near_reg=0all_t_in=0,wall_sg[now]=0


now= 94data_out_index_reg=  0,data_out_reg=  0,org_reg=  0,near_reg=  0,orgnear_reg=  0,distance=  1,sg_w=0,sg_near_reg=0all_t_in=0,wall_sg[now]=0


now= 92data_out_index_reg=  0,data_out_reg=  0,org_reg=  0,near_reg=  0,orgnear_reg=  0,distance=  1,sg_w=0,sg_near_reg=0all_t_in=0,wall_sg[now]=0


now= 90data_out_index_reg=  0,data_out_reg=  0,org_reg=  0,near_reg=  0,orgnear_reg=  0,distance=  1,sg_w=0,sg_near_reg=0all_t_in=0,wall_sg[now]=0


now= 88data_out_index_reg=  0,data_out_reg=  0,org_reg=  0,near_reg=  0,orgnear_reg=  0,distance=  1,sg_w=0,sg_near_reg=0all_t_in=0,wall_sg[now]=0


now= 86data_out_index_reg=  0,data_out_reg=  0,org_reg=  0,near_reg=  0,orgnear_reg=  0,distance=  1,sg_w=0,sg_near_reg=0all_t_in=0,wall_sg[now]=0


now= 84data_out_index_reg=  0,data_out_reg=  0,org_reg=  0,near_reg=  0,orgnear_reg=  0,distance=  1,sg_w=0,sg_near_reg=0all_t_in=0,wall_sg[now]=0


now= 82data_out_index_reg=  0,data_out_reg=  0,org_reg=  0,near_reg=  0,orgnear_reg=  0,distance=  1,sg_w=0,sg_near_reg=0all_t_in=0,wall_sg[now]=0


now= 77data_out_index_reg=  0,data_out_reg=  0,org_reg=  0,near_reg=  0,orgnear_reg=  0,distance=  1,sg_w=0,sg_near_reg=0all_t_in=0,wall_sg[now]=0


now= 75data_out_index_reg=  0,data_out_reg=  0,org_reg=  0,near_reg=  0,orgnear_reg=  0,distance=  1,sg_w=0,sg_near_reg=0all_t_in=0,wall_sg[now]=0


now= 73data_out_index_reg=  0,data_out_reg=  0,org_reg=  0,near_reg=  0,orgnear_reg=  0,distance=  1,sg_w=0,sg_near_reg=0all_t_in=0,wall_sg[now]=0


now= 71data_out_index_reg=  0,data_out_reg=  0,org_reg=  0,near_reg=  0,orgnear_reg=  0,distance=  1,sg_w=0,sg_near_reg=0all_t_in=0,wall_sg[now]=0


now= 69data_out_index_reg=  0,data_out_reg=  0,org_reg=  0,near_reg=  0,orgnear_reg=  0,distance=  1,sg_w=0,sg_near_reg=0all_t_in=0,wall_sg[now]=0


now= 67data_out_index_reg=  0,data_out_reg=  0,org_reg=  0,near_reg=  0,orgnear_reg=  0,distance=  1,sg_w=0,sg_near_reg=0all_t_in=0,wall_sg[now]=0


now= 65data_out_index_reg=  0,data_out_reg=  0,org_reg=  0,near_reg=  0,orgnear_reg=  0,distance=  1,sg_w=0,sg_near_reg=0all_t_in=0,wall_sg[now]=0


now= 62data_out_index_reg=  0,data_out_reg=  0,org_reg=  0,near_reg=  0,orgnear_reg=  0,distance=  1,sg_w=0,sg_near_reg=0all_t_in=0,wall_sg[now]=0


now= 60data_out_index_reg=  0,data_out_reg=  0,org_reg=  0,near_reg=  0,orgnear_reg=  0,distance=  1,sg_w=0,sg_near_reg=0all_t_in=0,wall_sg[now]=0


now= 58data_out_index_reg=  0,data_out_reg=  0,org_reg=  0,near_reg=  0,orgnear_reg=  0,distance=  1,sg_w=0,sg_near_reg=0all_t_in=0,wall_sg[now]=0


now= 56data_out_index_reg=  0,data_out_reg=  0,org_reg=  0,near_reg=  0,orgnear_reg=  0,distance=  1,sg_w=0,sg_near_reg=0all_t_in=0,wall_sg[now]=0


now= 54data_out_index_reg=  0,data_out_reg=  0,org_reg=  0,near_reg=  0,orgnear_reg=  0,distance=  1,sg_w=0,sg_near_reg=0all_t_in=0,wall_sg[now]=0


now= 52data_out_index_reg=  0,data_out_reg=  0,org_reg=  0,near_reg=  0,orgnear_reg=  0,distance=  1,sg_w=0,sg_near_reg=0all_t_in=0,wall_sg[now]=0


now= 50data_out_index_reg=  0,data_out_reg=  0,org_reg=  0,near_reg=  0,orgnear_reg=  0,distance=  1,sg_w=0,sg_near_reg=0all_t_in=0,wall_sg[now]=0


now= 45data_out_index_reg=  0,data_out_reg=  0,org_reg=  0,near_reg=  0,orgnear_reg=  0,distance=  1,sg_w=0,sg_near_reg=0all_t_in=0,wall_sg[now]=0


now= 43data_out_index_reg=  0,data_out_reg=  0,org_reg=  0,near_reg=  0,orgnear_reg=  0,distance=  1,sg_w=0,sg_near_reg=0all_t_in=0,wall_sg[now]=0


now= 41data_out_index_reg=  0,data_out_reg=  0,org_reg=  0,near_reg=  0,orgnear_reg=  0,distance=  1,sg_w=0,sg_near_reg=0all_t_in=0,wall_sg[now]=0


now= 39data_out_index_reg=  0,data_out_reg=  0,org_reg=  0,near_reg=  0,orgnear_reg=  0,distance=  1,sg_w=0,sg_near_reg=0all_t_in=0,wall_sg[now]=0


now= 37data_out_index_reg=  0,data_out_reg=  0,org_reg=  0,near_reg=  0,orgnear_reg=  0,distance=  1,sg_w=0,sg_near_reg=0all_t_in=0,wall_sg[now]=0


now= 35data_out_index_reg=  0,data_out_reg=  0,org_reg=  0,near_reg=  0,orgnear_reg=  0,distance=  1,sg_w=0,sg_near_reg=0all_t_in=0,wall_sg[now]=0


now= 33data_out_index_reg=  0,data_out_reg=  0,org_reg=  0,near_reg=  0,orgnear_reg=  0,distance=  1,sg_w=0,sg_near_reg=0all_t_in=0,wall_sg[now]=0


now= 30data_out_index_reg=  0,data_out_reg=  0,org_reg=  0,near_reg=  0,orgnear_reg=  0,distance=  1,sg_w=0,sg_near_reg=0all_t_in=0,wall_sg[now]=0


now= 28data_out_index_reg=  0,data_out_reg=  0,org_reg=  0,near_reg=  0,orgnear_reg=  0,distance=  1,sg_w=0,sg_near_reg=0all_t_in=0,wall_sg[now]=0


now= 26data_out_index_reg=  0,data_out_reg=  0,org_reg=  0,near_reg=  0,orgnear_reg=  0,distance=  1,sg_w=0,sg_near_reg=0all_t_in=0,wall_sg[now]=0


now= 24data_out_index_reg=  0,data_out_reg=  0,org_reg=  0,near_reg=  0,orgnear_reg=  0,distance=  1,sg_w=0,sg_near_reg=0all_t_in=0,wall_sg[now]=0


now= 22data_out_index_reg=  0,data_out_reg=  0,org_reg=  0,near_reg=  0,orgnear_reg=  0,distance=  1,sg_w=0,sg_near_reg=0all_t_in=0,wall_sg[now]=0


now= 20data_out_index_reg=  0,data_out_reg=  0,org_reg=  0,near_reg=  0,orgnear_reg=  0,distance=  1,sg_w=0,sg_near_reg=0all_t_in=0,wall_sg[now]=0

start  17 goal 109
out0= 64
255,255,255,255,255,255,255,255,255,255,255,255,255,255,
255,255,255,255,255,255,255,255,255,255,255,255,255,255,
255,255,255,255,255,255,255,255,255,255,255,255,255,255,
255,255,255,255,255,255,255,255,255,255,255,255,255,255,
255,255,255,255,255,255,255,255,255,255,255,255,255,255,
255,255,255,255,255,255,255,255,255,255,255,255,  0,255,

exit 000,dig_exit0

now= 19data_out_index_reg=255,data_out_reg=255,org_reg= 64,near_reg=255,orgnear_reg= 64,distance=  2,sg_w=0,sg_near_reg=0all_t_in=0,wall_sg[now]=0


now= 21data_out_index_reg=255,data_out_reg=255,org_reg= 64,near_reg=255,orgnear_reg= 64,distance=  2,sg_w=0,sg_near_reg=0all_t_in=0,wall_sg[now]=0


now= 23data_out_index_reg=255,data_out_reg=255,org_reg= 64,near_reg=255,orgnear_reg= 64,distance=  2,sg_w=0,sg_near_reg=0all_t_in=0,wall_sg[now]=0


now= 25data_out_index_reg=255,data_out_reg=255,org_reg= 64,near_reg=255,orgnear_reg= 64,distance=  2,sg_w=0,sg_near_reg=0all_t_in=0,wall_sg[now]=0


now= 27data_out_index_reg=255,data_out_reg=255,org_reg= 64,near_reg=255,orgnear_reg= 64,distance=  2,sg_w=0,sg_near_reg=0all_t_in=0,wall_sg[now]=0


now= 29data_out_index_reg=255,data_out_reg=255,org_reg= 64,near_reg=255,orgnear_reg= 64,distance=  2,sg_w=0,sg_near_reg=0all_t_in=0,wall_sg[now]=0


now= 34data_out_index_reg=255,data_out_reg=255,org_reg= 64,near_reg=255,orgnear_reg=255,distance=  2,sg_w=0,sg_near_reg=0all_t_in=0,wall_sg[now]=0


now= 36data_out_index_reg=255,data_out_reg=255,org_reg= 64,near_reg=255,orgnear_reg=255,distance=  2,sg_w=0,sg_near_reg=0all_t_in=0,wall_sg[now]=0


now= 38data_out_index_reg=255,data_out_reg=255,org_reg= 64,near_reg=255,orgnear_reg=255,distance=  2,sg_w=0,sg_near_reg=0all_t_in=0,wall_sg[now]=0


now= 40data_out_index_reg=255,data_out_reg=255,org_reg= 64,near_reg=255,orgnear_reg=255,distance=  2,sg_w=0,sg_near_reg=0all_t_in=0,wall_sg[now]=0


now= 42data_out_index_reg=255,data_out_reg=255,org_reg= 64,near_reg=255,orgnear_reg=255,distance=  2,sg_w=0,sg_near_reg=0all_t_in=0,wall_sg[now]=0


now= 44data_out_index_reg=255,data_out_reg=255,org_reg= 64,near_reg=255,orgnear_reg=255,distance=  2,sg_w=0,sg_near_reg=0all_t_in=0,wall_sg[now]=0


now= 46data_out_index_reg=255,data_out_reg=255,org_reg= 64,near_reg=255,orgnear_reg=255,distance=  2,sg_w=0,sg_near_reg=0all_t_in=0,wall_sg[now]=0


now= 49data_out_index_reg=255,data_out_reg=255,org_reg= 64,near_reg=255,orgnear_reg= 64,distance=  2,sg_w=0,sg_near_reg=0all_t_in=0,wall_sg[now]=0


now= 51data_out_index_reg=255,data_out_reg=255,org_reg= 64,near_reg=255,orgnear_reg= 64,distance=  2,sg_w=0,sg_near_reg=0all_t_in=0,wall_sg[now]=0


now= 53data_out_index_reg=255,data_out_reg=255,org_reg= 64,near_reg=255,orgnear_reg= 64,distance=  2,sg_w=0,sg_near_reg=0all_t_in=0,wall_sg[now]=0


now= 55data_out_index_reg=255,data_out_reg=255,org_reg= 64,near_reg=255,orgnear_reg= 64,distance=  2,sg_w=0,sg_near_reg=0all_t_in=0,wall_sg[now]=0


now= 57data_out_index_reg=255,data_out_reg=255,org_reg= 64,near_reg=255,orgnear_reg= 64,distance=  2,sg_w=0,sg_near_reg=0all_t_in=0,wall_sg[now]=0


now= 59data_out_index_reg=255,data_out_reg=255,org_reg= 64,near_reg=255,orgnear_reg= 64,distance=  2,sg_w=0,sg_near_reg=0all_t_in=0,wall_sg[now]=0


now= 61data_out_index_reg=255,data_out_reg=255,org_reg= 64,near_reg=255,orgnear_reg= 64,distance=  2,sg_w=0,sg_near_reg=0all_t_in=0,wall_sg[now]=0


now= 66data_out_index_reg=255,data_out_reg=255,org_reg= 64,near_reg=255,orgnear_reg=255,distance=  2,sg_w=0,sg_near_reg=0all_t_in=0,wall_sg[now]=0


now= 68data_out_index_reg=255,data_out_reg=255,org_reg= 64,near_reg=255,orgnear_reg=255,distance=  2,sg_w=0,sg_near_reg=0all_t_in=0,wall_sg[now]=0


now= 70data_out_index_reg=255,data_out_reg=255,org_reg= 64,near_reg=255,orgnear_reg=255,distance=  2,sg_w=0,sg_near_reg=0all_t_in=0,wall_sg[now]=0


now= 72data_out_index_reg=255,data_out_reg=255,org_reg= 64,near_reg=255,orgnear_reg=255,distance=  2,sg_w=0,sg_near_reg=0all_t_in=0,wall_sg[now]=0


now= 74data_out_index_reg=255,data_out_reg=255,org_reg= 64,near_reg=255,orgnear_reg=255,distance=  2,sg_w=0,sg_near_reg=0all_t_in=0,wall_sg[now]=0


now= 76data_out_index_reg=255,data_out_reg=255,org_reg= 64,near_reg=255,orgnear_reg=255,distance=  2,sg_w=0,sg_near_reg=0all_t_in=0,wall_sg[now]=0


now= 78data_out_index_reg=255,data_out_reg=255,org_reg= 64,near_reg=255,orgnear_reg=255,distance=  2,sg_w=0,sg_near_reg=0all_t_in=0,wall_sg[now]=0


now= 81data_out_index_reg=255,data_out_reg=255,org_reg= 64,near_reg=255,orgnear_reg= 64,distance=  2,sg_w=0,sg_near_reg=0all_t_in=0,wall_sg[now]=0


now= 83data_out_index_reg=255,data_out_reg=255,org_reg= 64,near_reg=255,orgnear_reg= 64,distance=  2,sg_w=0,sg_near_reg=0all_t_in=0,wall_sg[now]=0


now= 85data_out_index_reg=255,data_out_reg=255,org_reg= 64,near_reg=255,orgnear_reg= 64,distance=  2,sg_w=0,sg_near_reg=0all_t_in=0,wall_sg[now]=0


now= 87data_out_index_reg=255,data_out_reg=255,org_reg= 64,near_reg=255,orgnear_reg= 64,distance=  2,sg_w=0,sg_near_reg=0all_t_in=0,wall_sg[now]=0


now= 89data_out_index_reg=255,data_out_reg=255,org_reg= 64,near_reg=255,orgnear_reg= 64,distance=  2,sg_w=0,sg_near_reg=0all_t_in=0,wall_sg[now]=0


now= 91data_out_index_reg=255,data_out_reg=255,org_reg= 64,near_reg=255,orgnear_reg= 64,distance=  2,sg_w=0,sg_near_reg=0all_t_in=0,wall_sg[now]=0


now= 93data_out_index_reg=255,data_out_reg=255,org_reg= 64,near_reg=255,orgnear_reg= 64,distance=  2,sg_w=2,sg_near_reg=0all_t_in=0,wall_sg[now]=0


now= 98data_out_index_reg=255,data_out_reg=255,org_reg= 64,near_reg=255,orgnear_reg=255,distance=  2,sg_w=0,sg_near_reg=0all_t_in=0,wall_sg[now]=0


now=100data_out_index_reg=255,data_out_reg=255,org_reg= 64,near_reg=255,orgnear_reg=255,distance=  2,sg_w=0,sg_near_reg=0all_t_in=0,wall_sg[now]=0


now=102data_out_index_reg=255,data_out_reg=255,org_reg= 64,near_reg=255,orgnear_reg=255,distance=  2,sg_w=0,sg_near_reg=0all_t_in=0,wall_sg[now]=0


now=104data_out_index_reg=255,data_out_reg=255,org_reg= 64,near_reg=255,orgnear_reg=255,distance=  2,sg_w=0,sg_near_reg=0all_t_in=0,wall_sg[now]=0


now=106data_out_index_reg=255,data_out_reg=255,org_reg= 64,near_reg=255,orgnear_reg=255,distance=  2,sg_w=0,sg_near_reg=0all_t_in=0,wall_sg[now]=0


now=108data_out_index_reg=255,data_out_reg=255,org_reg= 64,near_reg=255,orgnear_reg=255,distance=  2,sg_w=0,sg_near_reg=0all_t_in=0,wall_sg[now]=0


now=110data_out_index_reg=  0,data_out_reg=  0,org_reg=  0,near_reg=255,orgnear_reg=255,distance=  2,sg_w=0,sg_near_reg=0all_t_in=0,wall_sg[now]=0


now= 17data_out_index_reg=255,data_out_reg=255,org_reg= 64,near_reg=255,orgnear_reg=127,distance=  2,sg_w=1,sg_near_reg=0all_t_in=0,wall_sg[now]=0


now= 18data_out_index_reg=127,data_out_reg=127,org_reg=127,near_reg=255,orgnear_reg= 64,distance=  3,sg_w=1,sg_near_reg=0all_t_in=0,wall_sg[now]=0


now=109data_out_index_reg=255,data_out_reg=255,org_reg=255,near_reg=  0,orgnear_reg=  0,distance=  3,sg_w=2,sg_near_reg=2all_t_in=0,wall_sg[now]=0


now=107data_out_index_reg=255,data_out_reg=255,org_reg=255,near_reg=255,orgnear_reg= 64,distance=  3,sg_w=0,sg_near_reg=0all_t_in=0,wall_sg[now]=0


now=105data_out_index_reg=255,data_out_reg=255,org_reg=255,near_reg=255,orgnear_reg= 64,distance=  3,sg_w=0,sg_near_reg=0all_t_in=0,wall_sg[now]=0


now=103data_out_index_reg=255,data_out_reg=255,org_reg=255,near_reg=255,orgnear_reg= 64,distance=  3,sg_w=0,sg_near_reg=0all_t_in=0,wall_sg[now]=0


now=101data_out_index_reg=255,data_out_reg=255,org_reg=255,near_reg=255,orgnear_reg= 64,distance=  3,sg_w=0,sg_near_reg=0all_t_in=0,wall_sg[now]=0


now= 99data_out_index_reg=255,data_out_reg=255,org_reg=255,near_reg=255,orgnear_reg= 64,distance=  3,sg_w=0,sg_near_reg=0all_t_in=0,wall_sg[now]=0


now= 97data_out_index_reg=255,data_out_reg=255,org_reg=255,near_reg=255,orgnear_reg= 64,distance=  3,sg_w=0,sg_near_reg=0all_t_in=0,wall_sg[now]=0


now= 94data_out_index_reg=255,data_out_reg=  2,org_reg= 64,near_reg=255,orgnear_reg= 64,distance=  3,sg_w=2,sg_near_reg=0all_t_in=0,wall_sg[now]=0


now= 92data_out_index_reg=255,data_out_reg=255,org_reg= 64,near_reg=255,orgnear_reg= 64,distance=  3,sg_w=2,sg_near_reg=0all_t_in=0,wall_sg[now]=0


now= 90data_out_index_reg=255,data_out_reg=255,org_reg= 64,near_reg=255,orgnear_reg= 64,distance=  3,sg_w=0,sg_near_reg=0all_t_in=0,wall_sg[now]=0


now= 88data_out_index_reg=255,data_out_reg=255,org_reg= 64,near_reg=255,orgnear_reg= 64,distance=  3,sg_w=0,sg_near_reg=0all_t_in=0,wall_sg[now]=0


now= 86data_out_index_reg=255,data_out_reg=255,org_reg= 64,near_reg=255,orgnear_reg= 64,distance=  3,sg_w=0,sg_near_reg=0all_t_in=0,wall_sg[now]=0


now= 84data_out_index_reg=255,data_out_reg=255,org_reg= 64,near_reg=255,orgnear_reg= 64,distance=  3,sg_w=0,sg_near_reg=0all_t_in=0,wall_sg[now]=0


now= 82data_out_index_reg=255,data_out_reg=255,org_reg= 64,near_reg=255,orgnear_reg= 64,distance=  3,sg_w=0,sg_near_reg=0all_t_in=0,wall_sg[now]=0


now= 77data_out_index_reg=255,data_out_reg=255,org_reg=255,near_reg=255,orgnear_reg= 64,distance=  3,sg_w=2,sg_near_reg=0all_t_in=0,wall_sg[now]=0


now= 75data_out_index_reg=255,data_out_reg=255,org_reg=255,near_reg=255,orgnear_reg= 64,distance=  3,sg_w=0,sg_near_reg=0all_t_in=0,wall_sg[now]=0


now= 73data_out_index_reg=255,data_out_reg=255,org_reg=255,near_reg=255,orgnear_reg= 64,distance=  3,sg_w=0,sg_near_reg=0all_t_in=0,wall_sg[now]=0


now= 71data_out_index_reg=255,data_out_reg=255,org_reg=255,near_reg=255,orgnear_reg= 64,distance=  3,sg_w=0,sg_near_reg=0all_t_in=0,wall_sg[now]=0


now= 69data_out_index_reg=255,data_out_reg=255,org_reg=255,near_reg=255,orgnear_reg= 64,distance=  3,sg_w=0,sg_near_reg=0all_t_in=0,wall_sg[now]=0


now= 67data_out_index_reg=255,data_out_reg=255,org_reg=255,near_reg=255,orgnear_reg= 64,distance=  3,sg_w=0,sg_near_reg=0all_t_in=0,wall_sg[now]=0


now= 65data_out_index_reg=255,data_out_reg=255,org_reg=255,near_reg=255,orgnear_reg= 64,distance=  3,sg_w=0,sg_near_reg=0all_t_in=0,wall_sg[now]=0


now= 62data_out_index_reg=255,data_out_reg=255,org_reg= 64,near_reg=255,orgnear_reg= 64,distance=  3,sg_w=0,sg_near_reg=0all_t_in=0,wall_sg[now]=0


now= 60data_out_index_reg=255,data_out_reg=255,org_reg= 64,near_reg=255,orgnear_reg= 64,distance=  3,sg_w=0,sg_near_reg=0all_t_in=0,wall_sg[now]=0


now= 58data_out_index_reg=255,data_out_reg=255,org_reg= 64,near_reg=255,orgnear_reg= 64,distance=  3,sg_w=0,sg_near_reg=0all_t_in=0,wall_sg[now]=0


now= 56data_out_index_reg=255,data_out_reg=255,org_reg= 64,near_reg=255,orgnear_reg= 64,distance=  3,sg_w=0,sg_near_reg=0all_t_in=0,wall_sg[now]=0


now= 54data_out_index_reg=255,data_out_reg=255,org_reg= 64,near_reg=255,orgnear_reg= 64,distance=  3,sg_w=0,sg_near_reg=0all_t_in=0,wall_sg[now]=0


now= 52data_out_index_reg=255,data_out_reg=255,org_reg= 64,near_reg=255,orgnear_reg= 64,distance=  3,sg_w=0,sg_near_reg=0all_t_in=0,wall_sg[now]=0


now= 50data_out_index_reg=255,data_out_reg=255,org_reg= 64,near_reg=255,orgnear_reg= 64,distance=  3,sg_w=0,sg_near_reg=0all_t_in=0,wall_sg[now]=0


now= 45data_out_index_reg=255,data_out_reg=255,org_reg=255,near_reg=255,orgnear_reg= 64,distance=  3,sg_w=0,sg_near_reg=0all_t_in=0,wall_sg[now]=0


now= 43data_out_index_reg=255,data_out_reg=255,org_reg=255,near_reg=255,orgnear_reg= 64,distance=  3,sg_w=0,sg_near_reg=0all_t_in=0,wall_sg[now]=0


now= 41data_out_index_reg=255,data_out_reg=255,org_reg=255,near_reg=255,orgnear_reg= 64,distance=  3,sg_w=0,sg_near_reg=0all_t_in=0,wall_sg[now]=0


now= 39data_out_index_reg=255,data_out_reg=255,org_reg=255,near_reg=255,orgnear_reg= 64,distance=  3,sg_w=0,sg_near_reg=0all_t_in=0,wall_sg[now]=0


now= 37data_out_index_reg=255,data_out_reg=255,org_reg=255,near_reg=255,orgnear_reg= 64,distance=  3,sg_w=0,sg_near_reg=0all_t_in=0,wall_sg[now]=0


now= 35data_out_index_reg=255,data_out_reg=255,org_reg=255,near_reg=255,orgnear_reg= 64,distance=  3,sg_w=0,sg_near_reg=0all_t_in=0,wall_sg[now]=0


now= 33data_out_index_reg=255,data_out_reg=255,org_reg=255,near_reg=255,orgnear_reg= 64,distance=  3,sg_w=1,sg_near_reg=0all_t_in=0,wall_sg[now]=0


now= 30data_out_index_reg=255,data_out_reg=255,org_reg= 64,near_reg=255,orgnear_reg= 64,distance=  3,sg_w=0,sg_near_reg=0all_t_in=0,wall_sg[now]=0


now= 28data_out_index_reg=255,data_out_reg=255,org_reg= 64,near_reg=255,orgnear_reg= 64,distance=  3,sg_w=0,sg_near_reg=0all_t_in=0,wall_sg[now]=0


now= 26data_out_index_reg=255,data_out_reg=255,org_reg= 64,near_reg=255,orgnear_reg= 64,distance=  3,sg_w=0,sg_near_reg=0all_t_in=0,wall_sg[now]=0


now= 24data_out_index_reg=255,data_out_reg=255,org_reg= 64,near_reg=255,orgnear_reg= 64,distance=  3,sg_w=0,sg_near_reg=0all_t_in=0,wall_sg[now]=0


now= 22data_out_index_reg=255,data_out_reg=255,org_reg= 64,near_reg=255,orgnear_reg= 64,distance=  3,sg_w=0,sg_near_reg=0all_t_in=0,wall_sg[now]=0


now= 20data_out_index_reg=255,data_out_reg=255,org_reg= 64,near_reg=255,orgnear_reg= 64,distance=  3,sg_w=0,sg_near_reg=0all_t_in=0,wall_sg[now]=0

exit 000,dig_exit0
127,255,255,255,255,255,255,255,255,255,255,255,255,255,
255,255,255,255,255,255,255,255,255,255,255,255,255,255,
255,255,255,255,255,255,255,255,255,255,255,255,255,255,
255,255,255,255,255,255,255,255,255,255,255,255,255,255,
255,255,255,255,255,255,255,255,255,255,255,255,  2,255,
255,255,255,255,255,255,255,255,255,255,255,255,  0,255,

127,125,255,255,255,255,255,255,255,255,255,255,255,255,
125,255,255,255,255,255,255,255,255,255,255,255,255,255,
255,255,255,255,255,255,255,255,255,255,255,255,255,255,
255,255,255,255,255,255,255,255,255,255,255,255,  3,255,
255,255,255,255,255,255,255,255,255,255,255,  3,  2,  3,
255,255,255,255,255,255,255,255,255,255,255,255,  0,255,

exit 000,dig_exit0

now= 19data_out_index_reg=255,data_out_reg=255,org_reg= 64,near_reg=255,orgnear_reg= 64,distance=  4,sg_w=1,sg_near_reg=0all_t_in=0,wall_sg[now]=0


now= 21data_out_index_reg=255,data_out_reg=255,org_reg= 64,near_reg=255,orgnear_reg= 64,distance=  4,sg_w=0,sg_near_reg=0all_t_in=0,wall_sg[now]=0


now= 23data_out_index_reg=255,data_out_reg=255,org_reg= 64,near_reg=255,orgnear_reg= 64,distance=  4,sg_w=0,sg_near_reg=0all_t_in=0,wall_sg[now]=0


now= 25data_out_index_reg=255,data_out_reg=255,org_reg= 64,near_reg=255,orgnear_reg= 64,distance=  4,sg_w=0,sg_near_reg=0all_t_in=0,wall_sg[now]=0


now= 27data_out_index_reg=255,data_out_reg=255,org_reg= 64,near_reg=255,orgnear_reg= 64,distance=  4,sg_w=0,sg_near_reg=0all_t_in=0,wall_sg[now]=0


now= 29data_out_index_reg=255,data_out_reg=255,org_reg= 64,near_reg=255,orgnear_reg= 64,distance=  4,sg_w=0,sg_near_reg=0all_t_in=0,wall_sg[now]=0


now= 34data_out_index_reg=255,data_out_reg=125,org_reg= 64,near_reg=255,orgnear_reg=255,distance=  4,sg_w=0,sg_near_reg=0all_t_in=0,wall_sg[now]=0


now= 36data_out_index_reg=255,data_out_reg=255,org_reg= 64,near_reg=255,orgnear_reg=255,distance=  4,sg_w=0,sg_near_reg=0all_t_in=0,wall_sg[now]=0


now= 38data_out_index_reg=255,data_out_reg=255,org_reg= 64,near_reg=255,orgnear_reg=255,distance=  4,sg_w=0,sg_near_reg=0all_t_in=0,wall_sg[now]=0


now= 40data_out_index_reg=255,data_out_reg=255,org_reg= 64,near_reg=255,orgnear_reg=255,distance=  4,sg_w=0,sg_near_reg=0all_t_in=0,wall_sg[now]=0


now= 42data_out_index_reg=255,data_out_reg=255,org_reg= 64,near_reg=255,orgnear_reg=255,distance=  4,sg_w=0,sg_near_reg=0all_t_in=0,wall_sg[now]=0


now= 44data_out_index_reg=255,data_out_reg=255,org_reg= 64,near_reg=255,orgnear_reg=255,distance=  4,sg_w=0,sg_near_reg=0all_t_in=0,wall_sg[now]=0


now= 46data_out_index_reg=255,data_out_reg=255,org_reg= 64,near_reg=255,orgnear_reg=255,distance=  4,sg_w=0,sg_near_reg=0all_t_in=0,wall_sg[now]=0


now= 49data_out_index_reg=255,data_out_reg=255,org_reg= 64,near_reg=255,orgnear_reg= 64,distance=  4,sg_w=1,sg_near_reg=0all_t_in=0,wall_sg[now]=0


now= 51data_out_index_reg=255,data_out_reg=255,org_reg= 64,near_reg=255,orgnear_reg= 64,distance=  4,sg_w=0,sg_near_reg=0all_t_in=0,wall_sg[now]=0


now= 53data_out_index_reg=255,data_out_reg=255,org_reg= 64,near_reg=255,orgnear_reg= 64,distance=  4,sg_w=0,sg_near_reg=0all_t_in=0,wall_sg[now]=0


now= 55data_out_index_reg=255,data_out_reg=255,org_reg= 64,near_reg=255,orgnear_reg= 64,distance=  4,sg_w=0,sg_near_reg=0all_t_in=0,wall_sg[now]=0


now= 57data_out_index_reg=255,data_out_reg=255,org_reg= 64,near_reg=255,orgnear_reg= 64,distance=  4,sg_w=0,sg_near_reg=0all_t_in=0,wall_sg[now]=0


now= 59data_out_index_reg=255,data_out_reg=255,org_reg= 64,near_reg=255,orgnear_reg= 64,distance=  4,sg_w=0,sg_near_reg=0all_t_in=0,wall_sg[now]=0


now= 61data_out_index_reg=255,data_out_reg=255,org_reg= 64,near_reg=255,orgnear_reg= 64,distance=  4,sg_w=2,sg_near_reg=0all_t_in=0,wall_sg[now]=0


now= 66data_out_index_reg=255,data_out_reg=255,org_reg= 64,near_reg=255,orgnear_reg=255,distance=  4,sg_w=0,sg_near_reg=0all_t_in=0,wall_sg[now]=0


now= 68data_out_index_reg=255,data_out_reg=255,org_reg= 64,near_reg=255,orgnear_reg=255,distance=  4,sg_w=0,sg_near_reg=0all_t_in=0,wall_sg[now]=0


now= 70data_out_index_reg=255,data_out_reg=255,org_reg= 64,near_reg=255,orgnear_reg=255,distance=  4,sg_w=0,sg_near_reg=0all_t_in=0,wall_sg[now]=0


now= 72data_out_index_reg=255,data_out_reg=255,org_reg= 64,near_reg=255,orgnear_reg=255,distance=  4,sg_w=0,sg_near_reg=0all_t_in=0,wall_sg[now]=0


now= 74data_out_index_reg=255,data_out_reg=255,org_reg= 64,near_reg=255,orgnear_reg=255,distance=  4,sg_w=0,sg_near_reg=0all_t_in=0,wall_sg[now]=0


now= 76data_out_index_reg=255,data_out_reg=255,org_reg= 64,near_reg=255,orgnear_reg=255,distance=  4,sg_w=0,sg_near_reg=0all_t_in=0,wall_sg[now]=0


now= 78data_out_index_reg=255,data_out_reg=  3,org_reg= 64,near_reg=255,orgnear_reg=255,distance=  4,sg_w=0,sg_near_reg=0all_t_in=0,wall_sg[now]=0


now= 81data_out_index_reg=255,data_out_reg=255,org_reg= 64,near_reg=255,orgnear_reg= 64,distance=  4,sg_w=0,sg_near_reg=0all_t_in=0,wall_sg[now]=0


now= 83data_out_index_reg=255,data_out_reg=255,org_reg= 64,near_reg=255,orgnear_reg= 64,distance=  4,sg_w=0,sg_near_reg=0all_t_in=0,wall_sg[now]=0


now= 85data_out_index_reg=255,data_out_reg=255,org_reg= 64,near_reg=255,orgnear_reg= 64,distance=  4,sg_w=0,sg_near_reg=0all_t_in=0,wall_sg[now]=0


now= 87data_out_index_reg=255,data_out_reg=255,org_reg= 64,near_reg=255,orgnear_reg= 64,distance=  4,sg_w=0,sg_near_reg=0all_t_in=0,wall_sg[now]=0


